<svg width="115" height="114" viewBox="0 0 115 114" fill="none" xmlns="http://www.w3.org/2000/svg">
<rect y="85" width="29" height="29" fill="#0163A9"/>
<rect y="56" width="29" height="29" fill="#FF6600"/>
<rect width="29" height="29" fill="#E8E8ED"/>
<rect x="29" y="85" width="29" height="29" fill="#E8E8ED"/>
<rect x="58" y="56" width="29" height="29" fill="#FF6600"/>
<rect x="87" y="85" width="28" height="29" fill="#038A9C"/>
<rect x="29" y="56" width="29" height="29" fill="#0163A9"/>
<rect x="29" y="27" width="29" height="29" fill="#038A9C"/>
</svg>
