<svg width="109" height="108" viewBox="0 0 109 108" fill="none" xmlns="http://www.w3.org/2000/svg">
<rect y="81" width="27" height="27" fill="#005C6E"/>
<rect y="54" width="27" height="27" fill="#E2F5FE"/>
<rect width="27" height="27" fill="#E8E8ED"/>
<rect x="27" y="81" width="27" height="27" fill="#E8E8ED"/>
<rect x="54" y="54" width="28" height="27" fill="#2391B4"/>
<rect x="82" y="81" width="27" height="27" fill="#40BFEB"/>
<rect x="27" y="54" width="27" height="27" fill="#37B4E3"/>
<rect x="27" y="26" width="27" height="28" fill="#88D9F9"/>
</svg>
