<svg width="1523" height="2649" viewBox="0 0 1523 2649" fill="none" xmlns="http://www.w3.org/2000/svg">
<path d="M1523 0H0V2009V2307L616 2649L1523 2165V0Z" fill="url(#paint0_linear)"/>
<path d="M1523 0H0V2009V2307L616 2649L1523 2165V0Z" fill="url(#paint1_radial)"/>
<defs>
<linearGradient id="paint0_linear" x1="-0.000114649" y1="2292" x2="1504" y2="1898.14" gradientUnits="userSpaceOnUse">
<stop stop-color="#008596"/>
<stop offset="1" stop-color="#23A6B8"/>
</linearGradient>
<radialGradient id="paint1_radial" cx="0" cy="0" r="1" gradientUnits="userSpaceOnUse" gradientTransform="translate(761 2246.75) rotate(90) scale(643.683 1493.45)">
<stop stop-color="white" stop-opacity="0.25"/>
<stop offset="1" stop-color="white" stop-opacity="0"/>
</radialGradient>
</defs>
</svg>
